{
    "time_info":{
        "timeOpened":"",
        "timezone":""
    },
    "sites_paths":{
        "pageon":"",
        "referrer":"",
        "previousSites":""
    },
    "browser":{
        "browserName":"",
        "browserEngine":"",
        "browserVersion1a":"",
        "browserVersion1b":"",
        "browserLanguage":"",
        "browserOnline":"",
        "browserPlatform":"",
        "dataCookiesEnabled": false,
        "dataCookies1":"",
        "dataCookies2":"",
        "dataStorage":""
    },
    "screen":{
        "sizeScreenW":0,
        "sizeScreenH":0,
        "sizeDocW":0,
        "sizeDocH":0,
        "sizeInW":0,
        "sizeInH":0,
        "sizeAvailW":0,
        "sizeAvailH":0,
        "scrColorDepth":0,
        "scrPixelDepth":0
    },
    "location":{
        "latitude":"",
        "longitude":"",
        "accuracy":"",
        "altitude":"",
        "altitudeAccuracy":"",
        "heading":"",
        "speed":"",
        "timestamp":""
    },
    "hardware":{
        "cpu_cores":0
    }
}